…
***Questions***

How many distinct stations are there? Note that stations are identified
both by name and by line (e.g. 125th St 8th Avenue; 125st Broadway;
125st Lenox); the distinct function may be useful here. ***465***

``` r
nyc_transit_data %>% 
  select(station_name, line) %>% 
    distinct
```

    ## # A tibble: 465 × 2
    ##   station_name line    
    ##   <chr>        <chr>   
    ## 1 25th St      4 Avenue
    ## 2 36th St      4 Avenue
    ## 3 45th St      4 Avenue
    ## 4 53rd St      4 Avenue
    ## 5 59th St      4 Avenue
    ## # … with 460 more rows
    ## # ℹ Use `print(n = ...)` to see more rows

How many stations are ADA compliant? ***84***

``` r
nyc_transit_data %>% 
  filter(ada == TRUE) %>% 
    select(station_name, line) %>% 
      distinct
```

    ## # A tibble: 84 × 2
    ##   station_name             line           
    ##   <chr>                    <chr>          
    ## 1 Atlantic Av-Barclays Ctr 4 Avenue       
    ## 2 DeKalb Av                4 Avenue       
    ## 3 Pacific St               4 Avenue       
    ## 4 Grand Central            42nd St Shuttle
    ## 5 34th St                  6 Avenue       
    ## # … with 79 more rows
    ## # ℹ Use `print(n = ...)` to see more rows
…
Reformatted Data: Distinct stations that serve the A train ***60***

``` r
nyc_transit_data %>% 
  pivot_longer(
    route1:route11,
    names_to = "route_num",
    values_to = "route") %>% 
  filter(route == "A") %>% 
  select(station_name, line, route_num) %>% 
  distinct
```

    ## # A tibble: 60 × 3
    ##   station_name                  line            route_num
    ##   <chr>                         <chr>           <chr>    
    ## 1 Times Square                  42nd St Shuttle route1   
    ## 2 125th St                      8 Avenue        route1   
    ## 3 145th St                      8 Avenue        route1   
    ## 4 14th St                       8 Avenue        route1   
    ## 5 168th St - Washington Heights 8 Avenue        route1   
    ## # … with 55 more rows
    ## # ℹ Use `print(n = ...)` to see more rows
…
